Species occurrence data (spocc)
…
            ... and so on for each data source

If you only request data from gbif, like from = 'gbif', then the other four source slots are present in the response object, but have no data.

You can quickly get just the GBIF data by indexing to it, like

df$gbif

#> Species [Accipiter striatus (500)] 
#> First 10 rows of [Accipiter_striatus]
#> 
#> # A tibble: 500 × 97
#>                  name  longitude latitude  prov                 issues
#>                 <chr>      <dbl>    <dbl> <chr>                  <chr>
#> 1  Accipiter striatus -106.31531 31.71593  gbif         cdround,gass84
#> 2  Accipiter striatus  -97.81493 26.03150  gbif cdround,cucdmis,gass84
#> 3  Accipiter striatus  -81.85267 28.81852  gbif                 gass84
#> 4  Accipiter striatus  -81.85329 28.81806  gbif         cdround,gass84
#> 5  Accipiter striatus  -95.50117 29.76086  gbif         cdround,gass84
#> 6  Accipiter striatus  -73.23131 44.28476  gbif         cdround,gass84
#> 7  Accipiter striatus  -97.94314 30.04580  gbif         cdround,gass84
#> 8  Accipiter striatus  -77.05161 38.87834  gbif         cdround,gass84
#> 9  Accipiter striatus -123.44703 48.54571  gbif         cdround,gass84
#> 10 Accipiter striatus  -96.74874 33.03102  gbif         cdround,gass84
#> # ... with 490 more rows, and 92 more variables: key <int>,
#> #   datasetKey <chr>, publishingOrgKey <chr>, publishingCountry <chr>,
#> #   protocol <chr>, lastCrawled <chr>, lastParsed <chr>, crawlId <int>,
#> #   basisOfRecord <chr>, taxonKey <int>, kingdomKey <int>,
#> #   phylumKey <int>, classKey <int>, orderKey <int>, familyKey <int>,
#> #   genusKey <int>, scientificName <chr>, kingdom <chr>, phylum <chr>,
#> #   order <chr>, family <chr>, genus <chr>, genericName <chr>,
#> #   specificEpithet <chr>, taxonRank <chr>, dateIdentified <chr>,
#> #   coordinateUncertaintyInMeters <dbl>, year <int>, month <int>,
…
When you get data from multiple providers, the fields returned are slightly different, e.g.:

df <- occ(query = 'Accipiter striatus', from = c('gbif', 'ecoengine'), limit = 25)
df$gbif$data$Accipiter_striatus

#> # A tibble: 25 × 62
#>                  name  longitude latitude                 issues  prov
#>                 <chr>      <dbl>    <dbl>                  <chr> <chr>
#> 1  Accipiter striatus -106.31531 31.71593         cdround,gass84  gbif
#> 2  Accipiter striatus  -97.81493 26.03150 cdround,cucdmis,gass84  gbif
#> 3  Accipiter striatus  -81.85267 28.81852                 gass84  gbif
#> 4  Accipiter striatus  -81.85329 28.81806         cdround,gass84  gbif
#> 5  Accipiter striatus  -95.50117 29.76086         cdround,gass84  gbif
#> 6  Accipiter striatus  -73.23131 44.28476         cdround,gass84  gbif
#> 7  Accipiter striatus  -97.94314 30.04580         cdround,gass84  gbif
#> 8  Accipiter striatus  -77.05161 38.87834         cdround,gass84  gbif
#> 9  Accipiter striatus -123.44703 48.54571         cdround,gass84  gbif
#> 10 Accipiter striatus  -96.74874 33.03102         cdround,gass84  gbif
#> # ... with 15 more rows, and 57 more variables: key <int>,
#> #   datasetKey <chr>, publishingOrgKey <chr>, publishingCountry <chr>,
#> #   protocol <chr>, lastCrawled <chr>, lastParsed <chr>, crawlId <int>,
#> #   basisOfRecord <chr>, taxonKey <int>, kingdomKey <int>,
#> #   phylumKey <int>, classKey <int>, orderKey <int>, familyKey <int>,
#> #   genusKey <int>, scientificName <chr>, kingdom <chr>, phylum <chr>,
#> #   order <chr>, family <chr>, genus <chr>, genericName <chr>,
#> #   specificEpithet <chr>, taxonRank <chr>, dateIdentified <chr>,
#> #   coordinateUncertaintyInMeters <dbl>, year <int>, month <int>,
#> #   day <int>, eventDate <date>, modified <chr>, lastInterpreted <chr>,
#> #   references <chr>, license <chr>, geodeticDatum <chr>, class <chr>,
#> #   countryCode <chr>, country <chr>, rightsHolder <chr>,
#> #   identifier <chr>, informationWithheld <chr>, verbatimEventDate <chr>,
#> #   datasetName <chr>, verbatimLocality <chr>, gbifID <chr>,
#> #   collectionCode <chr>, occurrenceID <chr>, taxonID <chr>,
#> #   recordedBy <chr>, catalogNumber <chr>,
#> #   `http://unknown.org/occurrenceDetails` <chr>, institutionCode <chr>,
#> #   rights <chr>, occurrenceRemarks <chr>, identificationID <chr>,
#> #   eventTime <chr>

df$ecoengine$data$Accipiter_striatus

#> # A tibble: 25 × 17
#>    longitude latitude
#> *      <dbl>    <dbl>
#> 1  -123.4474  40.4757
#> 2         NA       NA
#> 3         NA       NA
#> 4   -87.5932  41.7945
#> 5   -86.9241  41.2665
#> 6  -118.3016  34.0320
#> 7  -118.3016  34.0320
#> 8  -118.3016  34.0320
#> 9  -118.3016  34.0320
#> 10 -118.4415  34.2677
#> # ... with 15 more rows, and 15 more variables: url <chr>, key <chr>,
#> #   observation_type <chr>, name <chr>, country <chr>,
#> #   state_province <chr>, begin_date <date>, end_date <chr>, source <chr>,
#> #   remote_resource <chr>, locality <chr>,
#> #   coordinate_uncertainty_in_meters <int>, recorded_by <chr>,
#> #   last_modified <chr>, prov <chr>

We provide a function occ2df that pulls out a few key columns needed for making maps:

occ2df(df)

#> # A tibble: 50 × 6
#>                  name  longitude latitude  prov       date        key
#>                 <chr>      <dbl>    <dbl> <chr>     <date>      <chr>
#> 1  Accipiter striatus -106.31531 31.71593  gbif 2016-01-20 1233597063
#> 2  Accipiter striatus  -97.81493 26.03150  gbif 2016-01-14 1229927719
#> 3  Accipiter striatus  -81.85267 28.81852  gbif 2016-01-18 1253301153
#> 4  Accipiter striatus  -81.85329 28.81806  gbif 2016-01-18 1249295043
#> 5  Accipiter striatus  -95.50117 29.76086  gbif 2016-01-09 1229610478
#> 6  Accipiter striatus  -73.23131 44.28476  gbif 2016-01-03 1227769707
#> 7  Accipiter striatus  -97.94314 30.04580  gbif 2016-01-24 1233600470
#> 8  Accipiter striatus  -77.05161 38.87834  gbif 2016-01-02 1270044795
#> 9  Accipiter striatus -123.44703 48.54571  gbif 2016-01-31 1249281424
#> 10 Accipiter striatus  -96.74874 33.03102  gbif 2016-01-28 1257416040
#> # ... with 40 more rows
…
