spocc introduction
…
            | -- ecoengine -- |
                              | -- Accipiter_striatus
                              | -- Pinus_contorta

            ... and so on for each data source

If you only request data from gbif, like from = 'gbif', then the other four source slots are present in the response object, but have no data.

You can quickly get just the GBIF data by indexing to it, like

df$gbif
#> Species [Accipiter striatus (500)] 
#> First 10 rows of [Accipiter_striatus]
#> 
#> # A tibble: 500 x 79
#>    name  longitude latitude prov  issues key   scientificName datasetKey
#>    <chr>     <dbl>    <dbl> <chr> <chr>  <chr> <chr>          <chr>     
#>  1 Acci…    -107.      35.1 gbif  cdrou… 2542… Accipiter str… 50c9509d-…
#>  2 Acci…     -90.0     37.1 gbif  cdrou… 2543… Accipiter str… 50c9509d-…
#>  3 Acci…     -99.3     36.5 gbif  cdrou… 2543… Accipiter str… 50c9509d-…
#>  4 Acci…     -76.0     39.6 gbif  cdrou… 2543… Accipiter str… 50c9509d-…
#>  5 Acci…     -73.5     40.7 gbif  gass84 2543… Accipiter str… 50c9509d-…
#>  6 Acci…    -118.      34.6 gbif  cdrou… 2549… Accipiter str… 50c9509d-…
#>  7 Acci…    -121.      36.6 gbif  cdrou… 2550… Accipiter str… 50c9509d-…
#>  8 Acci…     -97.3     27.6 gbif  cdrou… 2550… Accipiter str… 50c9509d-…
#>  9 Acci…     -88.9     30.5 gbif  cdrou… 2550… Accipiter str… 50c9509d-…
#> 10 Acci…     -96.9     33.1 gbif  cdrou… 2550… Accipiter str… 50c9509d-…
#> # … with 490 more rows, and 71 more variables: publishingOrgKey <chr>,
#> #   installationKey <chr>, publishingCountry <chr>, protocol <chr>,
#> #   lastCrawled <chr>, lastParsed <chr>, crawlId <int>, basisOfRecord <chr>,
#> #   taxonKey <int>, kingdomKey <int>, phylumKey <int>, classKey <int>,
#> #   orderKey <int>, familyKey <int>, genusKey <int>, speciesKey <int>,
#> #   acceptedTaxonKey <int>, acceptedScientificName <chr>, kingdom <chr>,
#> #   phylum <chr>, order <chr>, family <chr>, genus <chr>, species <chr>,
#> #   genericName <chr>, specificEpithet <chr>, taxonRank <chr>,
#> #   taxonomicStatus <chr>, dateIdentified <chr>,
…
When you get data from multiple providers, the fields returned are slightly different because each data provider uses different formats for their data; different arrangements of data and different variable names for the same thing (e.g., one data provider may call latitude “latitude”, while another may call it “lat”). For example:

df <- occ(query = 'Accipiter striatus', from = c('gbif', 'ecoengine'), limit = 25)
df$gbif$data$Accipiter_striatus
#> # A tibble: 25 x 73
#>    name  longitude latitude issues prov  key   scientificName datasetKey
#>    <chr>     <dbl>    <dbl> <chr>  <chr> <chr> <chr>          <chr>     
#>  1 Acci…    -107.      35.1 cdrou… gbif  2542… Accipiter str… 50c9509d-…
#>  2 Acci…     -90.0     37.1 cdrou… gbif  2543… Accipiter str… 50c9509d-…
#>  3 Acci…     -99.3     36.5 cdrou… gbif  2543… Accipiter str… 50c9509d-…
#>  4 Acci…     -76.0     39.6 cdrou… gbif  2543… Accipiter str… 50c9509d-…
#>  5 Acci…     -73.5     40.7 gass84 gbif  2543… Accipiter str… 50c9509d-…
#>  6 Acci…    -118.      34.6 cdrou… gbif  2549… Accipiter str… 50c9509d-…
#>  7 Acci…    -121.      36.6 cdrou… gbif  2550… Accipiter str… 50c9509d-…
#>  8 Acci…     -97.3     27.6 cdrou… gbif  2550… Accipiter str… 50c9509d-…
#>  9 Acci…     -88.9     30.5 cdrou… gbif  2550… Accipiter str… 50c9509d-…
#> 10 Acci…     -96.9     33.1 cdrou… gbif  2550… Accipiter str… 50c9509d-…
#> # … with 15 more rows, and 65 more variables: publishingOrgKey <chr>,
#> #   installationKey <chr>, publishingCountry <chr>, protocol <chr>,
#> #   lastCrawled <chr>, lastParsed <chr>, crawlId <int>, basisOfRecord <chr>,
#> #   taxonKey <int>, kingdomKey <int>, phylumKey <int>, classKey <int>,
#> #   orderKey <int>, familyKey <int>, genusKey <int>, speciesKey <int>,
#> #   acceptedTaxonKey <int>, acceptedScientificName <chr>, kingdom <chr>,
#> #   phylum <chr>, order <chr>, family <chr>, genus <chr>, species <chr>,
#> #   genericName <chr>, specificEpithet <chr>, taxonRank <chr>,
#> #   taxonomicStatus <chr>, dateIdentified <chr>,
#> #   coordinateUncertaintyInMeters <dbl>, stateProvince <chr>, year <int>,
#> #   month <int>, day <int>, eventDate <date>, modified <chr>,
#> #   lastInterpreted <chr>, references <chr>, license <chr>,
#> #   geodeticDatum <chr>, class <chr>, countryCode <chr>, recordedByIDs <list>,
#> #   identifiedByIDs <list>, country <chr>, rightsHolder <chr>,
#> #   identifier <chr>, `http://unknown.org/nick` <chr>, verbatimEventDate <chr>,
#> #   datasetName <chr>, collectionCode <chr>, verbatimLocality <chr>,
#> #   gbifID <chr>, occurrenceID <chr>, taxonID <chr>, catalogNumber <chr>,
#> #   recordedBy <chr>, `http://unknown.org/occurrenceDetails` <chr>,
#> #   institutionCode <chr>, rights <chr>, eventTime <chr>, identifiedBy <chr>,
#> #   identificationID <chr>, informationWithheld <chr>, occurrenceRemarks <chr>
df$ecoengine$data$Accipiter_striatus
#> # A tibble: 25 x 17
#>    longitude latitude url   key   observation_type name  country state_province
#>        <dbl>    <dbl> <chr> <chr> <chr>            <chr> <chr>   <chr>         
#>  1     -115.     33.4 http… MVZ:… specimen         Acci… United… California    
#>  2     -117.     34.5 http… MVZ:… specimen         Acci… United… California    
#>  3     -116.     33.9 http… MVZ:… specimen         Acci… United… California    
#>  4     -115.     33.4 http… MVZ:… specimen         Acci… United… California    
#>  5     -114.     34.5 http… MVZ:… specimen         Acci… United… California    
#>  6     -119.     41.7 http… MVZ:… specimen         Acci… United… Nevada        
#>  7     -119.     39.4 http… MVZ:… specimen         Acci… United… Nevada        
#>  8     -119.     39.4 http… MVZ:… specimen         Acci… United… Nevada        
#>  9     -116.     40.1 http… MVZ:… specimen         Acci… United… Nevada        
#> 10     -116.     40.1 http… MVZ:… specimen         Acci… United… Nevada        
#> # … with 15 more rows, and 9 more variables: begin_date <date>, end_date <chr>,
#> #   source <chr>, remote_resource <chr>, locality <chr>,
#> #   coordinate_uncertainty_in_meters <int>, recorded_by <chr>,
#> #   last_modified <chr>, prov <chr>

We provide a function occ2df that pulls out a few key columns needed for making maps:

occ2df(df)
#> # A tibble: 50 x 6
#>    name                            longitude latitude prov  date       key      
#>    <chr>                               <dbl>    <dbl> <chr> <date>     <chr>    
#>  1 Accipiter striatus Vieillot, 1…    -107.      35.1 gbif  2020-01-02 25429665…
#>  2 Accipiter striatus Vieillot, 1…     -90.0     37.1 gbif  2020-01-01 25430843…
#>  3 Accipiter striatus Vieillot, 1…     -99.3     36.5 gbif  2020-01-01 25430853…
#>  4 Accipiter striatus Vieillot, 1…     -76.0     39.6 gbif  2020-01-01 25430927…
#>  5 Accipiter striatus Vieillot, 1…     -73.5     40.7 gbif  2020-01-01 25430953…
#>  6 Accipiter striatus Vieillot, 1…    -118.      34.6 gbif  2020-01-03 25499936…
#>  7 Accipiter striatus Vieillot, 1…    -121.      36.6 gbif  2020-01-04 25500018…
#>  8 Accipiter striatus Vieillot, 1…     -97.3     27.6 gbif  2020-01-04 25500046…
#>  9 Accipiter striatus Vieillot, 1…     -88.9     30.5 gbif  2020-01-04 25500173…
#> 10 Accipiter striatus Vieillot, 1…     -96.9     33.1 gbif  2020-01-05 25500177…
#> # … with 40 more rows
…
